
siluokayi.png
size: 2048,256
format: RGBA8888
filter: Linear,Linear
repeat: none
bozi
  rotate: true
  xy: 361, 2
  size: 23, 24
  orig: 23, 24
  offset: 0, 0
  index: -1
dagebo
  rotate: true
  xy: 1149, 20
  size: 43, 66
  orig: 46, 66
  offset: 3, 0
  index: -1
dageboR
  rotate: false
  xy: 1187, 84
  size: 39, 63
  orig: 39, 70
  offset: 0, 0
  index: -1
datuiL
  rotate: true
  xy: 1049, 142
  size: 47, 85
  orig: 47, 85
  offset: 0, 0
  index: -1
datuiR
  rotate: true
  xy: 1136, 149
  size: 45, 82
  orig: 53, 82
  offset: 5, 0
  index: -1
eye_01
  rotate: false
  xy: 968, 191
  size: 123, 63
  orig: 123, 63
  offset: 0, 0
  index: -1
eye_02
  rotate: true
  xy: 1058, 44
  size: 96, 64
  orig: 96, 64
  offset: 0, 0
  index: -1
fajiuL
  rotate: true
  xy: 268, 27
  size: 60, 261
  orig: 65, 261
  offset: 5, 0
  index: -1
fajiuR
  rotate: true
  xy: 2, 2
  size: 85, 264
  orig: 85, 264
  offset: 0, 0
  index: -1
hubiejie
  rotate: true
  xy: 1217, 30
  size: 52, 37
  orig: 52, 37
  offset: 0, 0
  index: -1
hudie
  rotate: false
  xy: 1228, 103
  size: 33, 50
  orig: 33, 50
  offset: 0, 0
  index: -1
hudieR
  rotate: false
  xy: 1257, 166
  size: 34, 48
  orig: 34, 48
  offset: 0, 0
  index: -1
lian
  rotate: false
  xy: 674, 25
  size: 123, 64
  orig: 123, 64
  offset: 0, 0
  index: -1
maozi
  rotate: false
  xy: 858, 133
  size: 108, 121
  orig: 108, 121
  offset: 0, 0
  index: -1
meimao
  rotate: false
  xy: 268, 6
  size: 91, 19
  orig: 91, 19
  offset: 0, 0
  index: -1
nai
  rotate: true
  xy: 1220, 155
  size: 59, 35
  orig: 59, 35
  offset: 0, 0
  index: -1
naoke
  rotate: true
  xy: 1293, 17
  size: 197, 194
  orig: 225, 199
  offset: 28, 5
  index: -1
pigu
  rotate: false
  xy: 726, 103
  size: 130, 151
  orig: 130, 151
  offset: 0, 0
  index: -1
qugan
  rotate: false
  xy: 964, 18
  size: 92, 113
  orig: 95, 113
  offset: 3, 0
  index: -1
qunzi
  rotate: false
  xy: 799, 4
  size: 163, 97
  orig: 163, 97
  offset: 0, 0
  index: -1
toufaL
  rotate: true
  xy: 2, 89
  size: 165, 361
  orig: 177, 365
  offset: 12, 0
  index: -1
toufaR
  rotate: true
  xy: 365, 91
  size: 163, 359
  orig: 176, 364
  offset: 0, 0
  index: -1
xiaogeboL
  rotate: true
  xy: 968, 137
  size: 52, 79
  orig: 53, 79
  offset: 0, 0
  index: -1
xiaogeboR
  rotate: false
  xy: 1124, 65
  size: 61, 75
  orig: 63, 79
  offset: 0, 4
  index: -1
xiaotui
  rotate: true
  xy: 1058, 3
  size: 39, 89
  orig: 39, 89
  offset: 0, 0
  index: -1
xiaotuiR
  rotate: true
  xy: 1214, 216
  size: 38, 82
  orig: 43, 82
  offset: 0, 0
  index: -1
xiufa01
  rotate: true
  xy: 1093, 196
  size: 58, 119
  orig: 58, 119
  offset: 0, 0
  index: -1
xiufa02
  rotate: true
  xy: 531, 30
  size: 59, 141
  orig: 59, 141
  offset: 0, 0
  index: -1
zhaomenfa01
  rotate: true
  xy: 1489, 32
  size: 222, 168
  orig: 222, 168
  offset: 0, 0
  index: -1
